An Introduction to data wrangling (pt1)
…
mutate()

Introducing arrange()

The arrange() verb provides a frameworks to sort the rows of your data by specific columns.

## format mtcars slightly 
## TRY TO IGNORE THIS FOR NOW !!
mtcars = tibble(mtcars) |> mutate(car = rownames(mtcars), .before = mpg)

## What does the mtcars data set look like?
mtcars

# A tibble: 32 × 12
   car           mpg   cyl  disp    hp  drat    wt  qsec    vs    am  gear  carb
   <chr>       <dbl> <dbl> <dbl> <dbl> <dbl> <dbl> <dbl> <dbl> <dbl> <dbl> <dbl>
 1 Mazda RX4    21       6  160    110  3.9   2.62  16.5     0     1     4     4
 2 Mazda RX4 …  21       6  160    110  3.9   2.88  17.0     0     1     4     4
 3 Datsun 710   22.8     4  108     93  3.85  2.32  18.6     1     1     4     1
 4 Hornet 4 D…  21.4     6  258    110  3.08  3.22  19.4     1     0     3     1
 5 Hornet Spo…  18.7     8  360    175  3.15  3.44  17.0     0     0     3     2
 6 Valiant      18.1     6  225    105  2.76  3.46  20.2     1     0     3     1
 7 Duster 360   14.3     8  360    245  3.21  3.57  15.8     0     0     3     4
 8 Merc 240D    24.4     4  147.    62  3.69  3.19  20       1     0     4     2
 9 Merc 230     22.8     4  141.    95  3.92  3.15  22.9     1     0     4     2
10 Merc 280     19.2     6  168.   123  3.92  3.44  18.3     1     0     4     4
# ℹ 22 more rows

arrange() applying the arrange() verb to your data

arrange() by mpg.

## arrange the mtcars data set by the mpg for each car.
mtcars |> arrange(mpg)

# A tibble: 32 × 12
   car           mpg   cyl  disp    hp  drat    wt  qsec    vs    am  gear  carb
   <chr>       <dbl> <dbl> <dbl> <dbl> <dbl> <dbl> <dbl> <dbl> <dbl> <dbl> <dbl>
 1 Cadillac F…  10.4     8  472    205  2.93  5.25  18.0     0     0     3     4
 2 Lincoln Co…  10.4     8  460    215  3     5.42  17.8     0     0     3     4
 3 Camaro Z28   13.3     8  350    245  3.73  3.84  15.4     0     0     3     4
 4 Duster 360   14.3     8  360    245  3.21  3.57  15.8     0     0     3     4
 5 Chrysler I…  14.7     8  440    230  3.23  5.34  17.4     0     0     3     4
 6 Maserati B…  15       8  301    335  3.54  3.57  14.6     0     1     5     8
 7 Merc 450SLC  15.2     8  276.   180  3.07  3.78  18       0     0     3     3
 8 AMC Javelin  15.2     8  304    150  3.15  3.44  17.3     0     0     3     2
 9 Dodge Chal…  15.5     8  318    150  2.76  3.52  16.9     0     0     3     2
10 Ford Pante…  15.8     8  351    264  4.22  3.17  14.5     0     1     5     4
# ℹ 22 more rows

arrange() with the helper function desc()

arrange() in descending order by mpg.

## arrange by mpg in descending order
mtcars |> arrange( desc(mpg) )

# A tibble: 32 × 12
   car           mpg   cyl  disp    hp  drat    wt  qsec    vs    am  gear  carb
   <chr>       <dbl> <dbl> <dbl> <dbl> <dbl> <dbl> <dbl> <dbl> <dbl> <dbl> <dbl>
 1 Toyota Cor…  33.9     4  71.1    65  4.22  1.84  19.9     1     1     4     1
 2 Fiat 128     32.4     4  78.7    66  4.08  2.2   19.5     1     1     4     1
 3 Honda Civic  30.4     4  75.7    52  4.93  1.62  18.5     1     1     4     2
 4 Lotus Euro…  30.4     4  95.1   113  3.77  1.51  16.9     1     1     5     2
 5 Fiat X1-9    27.3     4  79      66  4.08  1.94  18.9     1     1     4     1
 6 Porsche 91…  26       4 120.     91  4.43  2.14  16.7     0     1     5     2
 7 Merc 240D    24.4     4 147.     62  3.69  3.19  20       1     0     4     2
 8 Datsun 710   22.8     4 108      93  3.85  2.32  18.6     1     1     4     1
 9 Merc 230     22.8     4 141.     95  3.92  3.15  22.9     1     0     4     2
10 Toyota Cor…  21.5     4 120.     97  3.7   2.46  20.0     1     0     3     1
# ℹ 22 more rows

arrange() by data in multiple columns

arrange() by number of carburetors, number of cylinder, and then mpg in descending order

in that order: carb, cyl, mpg

## arrange by number of carburetors, number of cylinder, and then mpg in descending order
mtcars |> arrange( carb, cyl,  desc(mpg))

# A tibble: 32 × 12
   car           mpg   cyl  disp    hp  drat    wt  qsec    vs    am  gear  carb
   <chr>       <dbl> <dbl> <dbl> <dbl> <dbl> <dbl> <dbl> <dbl> <dbl> <dbl> <dbl>
 1 Toyota Cor…  33.9     4  71.1    65  4.22  1.84  19.9     1     1     4     1
 2 Fiat 128     32.4     4  78.7    66  4.08  2.2   19.5     1     1     4     1
 3 Fiat X1-9    27.3     4  79      66  4.08  1.94  18.9     1     1     4     1
 4 Datsun 710   22.8     4 108      93  3.85  2.32  18.6     1     1     4     1
 5 Toyota Cor…  21.5     4 120.     97  3.7   2.46  20.0     1     0     3     1
 6 Hornet 4 D…  21.4     6 258     110  3.08  3.22  19.4     1     0     3     1
 7 Valiant      18.1     6 225     105  2.76  3.46  20.2     1     0     3     1
 8 Honda Civic  30.4     4  75.7    52  4.93  1.62  18.5     1     1     4     2
 9 Lotus Euro…  30.4     4  95.1   113  3.77  1.51  16.9     1     1     5     2
10 Porsche 91…  26       4 120.     91  4.43  2.14  16.7     0     1     5     2
# ℹ 22 more rows
…
filter(): in combination with the (!)is.na() base R function

return a data set where a column has complete or no data

mtcars |> filter( is.na(mpg) )

# A tibble: 0 × 12
# ℹ 12 variables: car <chr>, mpg <dbl>, cyl <dbl>, disp <dbl>, hp <dbl>,
#   drat <dbl>, wt <dbl>, qsec <dbl>, vs <dbl>, am <dbl>, gear <dbl>,
#   carb <dbl>

mtcars |> filter( !is.na(mpg) )

# A tibble: 32 × 12
   car           mpg   cyl  disp    hp  drat    wt  qsec    vs    am  gear  carb
   <chr>       <dbl> <dbl> <dbl> <dbl> <dbl> <dbl> <dbl> <dbl> <dbl> <dbl> <dbl>
 1 Mazda RX4    21       6  160    110  3.9   2.62  16.5     0     1     4     4
 2 Mazda RX4 …  21       6  160    110  3.9   2.88  17.0     0     1     4     4
 3 Datsun 710   22.8     4  108     93  3.85  2.32  18.6     1     1     4     1
 4 Hornet 4 D…  21.4     6  258    110  3.08  3.22  19.4     1     0     3     1
 5 Hornet Spo…  18.7     8  360    175  3.15  3.44  17.0     0     0     3     2
 6 Valiant      18.1     6  225    105  2.76  3.46  20.2     1     0     3     1
 7 Duster 360   14.3     8  360    245  3.21  3.57  15.8     0     0     3     4
 8 Merc 240D    24.4     4  147.    62  3.69  3.19  20       1     0     4     2
 9 Merc 230     22.8     4  141.    95  3.92  3.15  22.9     1     0     4     2
10 Merc 280     19.2     6  168.   123  3.92  3.44  18.3     1     0     4     4
# ℹ 22 more rows
…
filter(): in combination with the grepl() base R function

mtcars |> filter( grepl("Fiat", car) )

# A tibble: 2 × 12
  car         mpg   cyl  disp    hp  drat    wt  qsec    vs    am  gear  carb
  <chr>     <dbl> <dbl> <dbl> <dbl> <dbl> <dbl> <dbl> <dbl> <dbl> <dbl> <dbl>
1 Fiat 128   32.4     4  78.7    66  4.08  2.2   19.5     1     1     4     1
2 Fiat X1-9  27.3     4  79      66  4.08  1.94  18.9     1     1     4     1

! NOT

mtcars |> filter( !grepl("Fiat", car) )

# A tibble: 30 × 12
   car           mpg   cyl  disp    hp  drat    wt  qsec    vs    am  gear  carb
   <chr>       <dbl> <dbl> <dbl> <dbl> <dbl> <dbl> <dbl> <dbl> <dbl> <dbl> <dbl>
 1 Mazda RX4    21       6  160    110  3.9   2.62  16.5     0     1     4     4
 2 Mazda RX4 …  21       6  160    110  3.9   2.88  17.0     0     1     4     4
 3 Datsun 710   22.8     4  108     93  3.85  2.32  18.6     1     1     4     1
 4 Hornet 4 D…  21.4     6  258    110  3.08  3.22  19.4     1     0     3     1
 5 Hornet Spo…  18.7     8  360    175  3.15  3.44  17.0     0     0     3     2
 6 Valiant      18.1     6  225    105  2.76  3.46  20.2     1     0     3     1
 7 Duster 360   14.3     8  360    245  3.21  3.57  15.8     0     0     3     4
 8 Merc 240D    24.4     4  147.    62  3.69  3.19  20       1     0     4     2
 9 Merc 230     22.8     4  141.    95  3.92  3.15  22.9     1     0     4     2
10 Merc 280     19.2     6  168.   123  3.92  3.44  18.3     1     0     4     4
# ℹ 20 more rows
…
Introducing select()

The select() verb extracts specific columns from a tibble.

mtcars |> select(car, mpg, cyl)

# A tibble: 32 × 3
   car                 mpg   cyl
   <chr>             <dbl> <dbl>
 1 Mazda RX4          21       6
 2 Mazda RX4 Wag      21       6
 3 Datsun 710         22.8     4
 4 Hornet 4 Drive     21.4     6
 5 Hornet Sportabout  18.7     8
 6 Valiant            18.1     6
 7 Duster 360         14.3     8
 8 Merc 240D          24.4     4
 9 Merc 230           22.8     4
10 Merc 280           19.2     6
# ℹ 22 more rows
…
matches()

num_range()

everything()

 NOTE: each helper function revolves around selecting column names.

select(): using the starts_with() helper function

select() the Sepal columns from the iris data set

tibble(iris) |> select(starts_with("Sepal"))

# A tibble: 150 × 2
   Sepal.Length Sepal.Width
          <dbl>       <dbl>
 1          5.1         3.5
 2          4.9         3  
 3          4.7         3.2
 4          4.6         3.1
 5          5           3.6
 6          5.4         3.9
 7          4.6         3.4
 8          5           3.4
 9          4.4         2.9
10          4.9         3.1
# ℹ 140 more rows

select(): using the ends_with() helper function

select() the Width columns from the iris data set

tibble(iris) |> select(ends_with("Width"))

# A tibble: 150 × 2
   Sepal.Width Petal.Width
         <dbl>       <dbl>
 1         3.5         0.2
 2         3           0.2
 3         3.2         0.2
 4         3.1         0.2
 5         3.6         0.2
 6         3.9         0.4
 7         3.4         0.3
 8         3.4         0.2
 9         2.9         0.2
10         3.1         0.1
# ℹ 140 more rows

select(): using the contains() helper function

select() the columns from the iris data set with a “.”

tibble(iris) |> select(contains("."))

# A tibble: 150 × 4
   Sepal.Length Sepal.Width Petal.Length Petal.Width
          <dbl>       <dbl>        <dbl>       <dbl>
 1          5.1         3.5          1.4         0.2
 2          4.9         3            1.4         0.2
 3          4.7         3.2          1.3         0.2
 4          4.6         3.1          1.5         0.2
 5          5           3.6          1.4         0.2
 6          5.4         3.9          1.7         0.4
 7          4.6         3.4          1.4         0.3
 8          5           3.4          1.5         0.2
 9          4.4         2.9          1.4         0.2
10          4.9         3.1          1.5         0.1
# ℹ 140 more rows

select(): using the everything() helper function

Reorder the iris data set columns to put “Species” first

tibble(iris) |> select(Species, everything())

# A tibble: 150 × 5
   Species Sepal.Length Sepal.Width Petal.Length Petal.Width
   <fct>          <dbl>       <dbl>        <dbl>       <dbl>
 1 setosa           5.1         3.5          1.4         0.2
 2 setosa           4.9         3            1.4         0.2
 3 setosa           4.7         3.2          1.3         0.2
 4 setosa           4.6         3.1          1.5         0.2
 5 setosa           5           3.6          1.4         0.2
 6 setosa           5.4         3.9          1.7         0.4
 7 setosa           4.6         3.4          1.4         0.3
 8 setosa           5           3.4          1.5         0.2
 9 setosa           4.4         2.9          1.4         0.2
10 setosa           4.9         3.1          1.5         0.1
# ℹ 140 more rows
…
# A tibble: 3 × 5
    cyl count   min   max   avg
  <dbl> <int> <dbl> <dbl> <dbl>
1     4    11  21.4  33.9  26.7
2     6     7  17.8  21.4  19.7
3     8    14  10.4  19.2  15.1

Introducing mutate()

The mutate() verb adds new columns to a tibble that are functions of existing variables.

tibble(iris) |> mutate(Petal.Area = Petal.Width * Petal.Length)

# A tibble: 150 × 6
   Sepal.Length Sepal.Width Petal.Length Petal.Width Species Petal.Area
          <dbl>       <dbl>        <dbl>       <dbl> <fct>        <dbl>
 1          5.1         3.5          1.4         0.2 setosa        0.28
 2          4.9         3            1.4         0.2 setosa        0.28
 3          4.7         3.2          1.3         0.2 setosa        0.26
 4          4.6         3.1          1.5         0.2 setosa        0.3 
 5          5           3.6          1.4         0.2 setosa        0.28
 6          5.4         3.9          1.7         0.4 setosa        0.68
 7          4.6         3.4          1.4         0.3 setosa        0.42
 8          5           3.4          1.5         0.2 setosa        0.3 
 9          4.4         2.9          1.4         0.2 setosa        0.28
10          4.9         3.1          1.5         0.1 setosa        0.15
# ℹ 140 more rows

mutate(): new column placement with .before

Use .before to add the column before Species

tibble(iris) |> mutate(Petal.Area = Petal.Width * Petal.Length, .before = Species)

# A tibble: 150 × 6
   Sepal.Length Sepal.Width Petal.Length Petal.Width Petal.Area Species
          <dbl>       <dbl>        <dbl>       <dbl>      <dbl> <fct>  
 1          5.1         3.5          1.4         0.2       0.28 setosa 
 2          4.9         3            1.4         0.2       0.28 setosa 
 3          4.7         3.2          1.3         0.2       0.26 setosa 
 4          4.6         3.1          1.5         0.2       0.3  setosa 
 5          5           3.6          1.4         0.2       0.28 setosa 
 6          5.4         3.9          1.7         0.4       0.68 setosa 
 7          4.6         3.4          1.4         0.3       0.42 setosa 
 8          5           3.4          1.5         0.2       0.3  setosa 
 9          4.4         2.9          1.4         0.2       0.28 setosa 
10          4.9         3.1          1.5         0.1       0.15 setosa 
# ℹ 140 more rows

mutate(): new column placement with .after

Use .after to add the column before Petal.Width

tibble(iris) |> mutate(Petal.Area = Petal.Width * Petal.Length, .after = Petal.Width)

# A tibble: 150 × 6
   Sepal.Length Sepal.Width Petal.Length Petal.Width Petal.Area Species
          <dbl>       <dbl>        <dbl>       <dbl>      <dbl> <fct>  
 1          5.1         3.5          1.4         0.2       0.28 setosa 
 2          4.9         3            1.4         0.2       0.28 setosa 
 3          4.7         3.2          1.3         0.2       0.26 setosa 
 4          4.6         3.1          1.5         0.2       0.3  setosa 
 5          5           3.6          1.4         0.2       0.28 setosa 
 6          5.4         3.9          1.7         0.4       0.68 setosa 
 7          4.6         3.4          1.4         0.3       0.42 setosa 
 8          5           3.4          1.5         0.2       0.3  setosa 
 9          4.4         2.9          1.4         0.2       0.28 setosa 
10          4.9         3.1          1.5         0.1       0.15 setosa 
# ℹ 140 more rows
…
# A tibble: 3 × 5
  Sepal.Length Sepal.Width Petal.Length[,1] Petal.Width[,1] Species
         <dbl>       <dbl>            <dbl>           <dbl> <fct>  
1          5.1         3.5            -1.34           -1.31 setosa 
2          4.9         3              -1.34           -1.31 setosa 
3          4.7         3.2            -1.39           -1.31 setosa 

mutate(): using the if_else() helper function

tibble(iris) |> mutate( new.petal.width = if_else(Species != "virginica", 
                                                  Petal.Width + 10, 
                                                  Petal.Width),
                        .before = Species)

# A tibble: 150 × 6
   Sepal.Length Sepal.Width Petal.Length Petal.Width new.petal.width Species
          <dbl>       <dbl>        <dbl>       <dbl>           <dbl> <fct>  
 1          5.1         3.5          1.4         0.2            10.2 setosa 
 2          4.9         3            1.4         0.2            10.2 setosa 
 3          4.7         3.2          1.3         0.2            10.2 setosa 
 4          4.6         3.1          1.5         0.2            10.2 setosa 
 5          5           3.6          1.4         0.2            10.2 setosa 
 6          5.4         3.9          1.7         0.4            10.4 setosa 
 7          4.6         3.4          1.4         0.3            10.3 setosa 
 8          5           3.4          1.5         0.2            10.2 setosa 
 9          4.4         2.9          1.4         0.2            10.2 setosa 
10          4.9         3.1          1.5         0.1            10.1 setosa 
# ℹ 140 more rows
…
